{
    "type": "application",
    "source-directories": [
        "src"
    ],
    "elm-version": "0.19.1",
    "dependencies": {
        "direct": {
            "NoRedInk/elm-json-decode-pipeline": "1.0.0",
            "dillonkearns/elm-graphql": "4.5.0",
            "elm/browser": "1.0.2",
            "elm/core": "1.0.4",
            "elm/html": "1.0.0",
            "elm/http": "2.0.0",
            "elm/json": "1.1.3",
            "elm/parser": "1.1.0",
            "elm/regex": "1.0.0",
            "elm/url": "1.0.0",
            "elm-community/list-extra": "8.2.2",
            "elm-community/maybe-extra": "5.1.0",
            "elm-explorations/markdown": "1.0.0",
            "elm-explorations/test": "1.2.2",
            "krisajenkins/remotedata": "6.0.1"
        },
        "indirect": {
            "Skinney/murmur3": "2.0.8",
            "elm/bytes": "1.0.8",
            "elm/file": "1.0.5",
            "elm/random": "1.0.0",
            "elm/time": "1.0.0",
            "elm/virtual-dom": "1.0.2",
            "lukewestby/elm-string-interpolate": "1.0.4"
        }
    },
    "test-dependencies": {
        "direct": {},
        "indirect": {}
    }
}
